

 INTENTO:         
Tracing route to 138.0.12.100 over a maximum of 10 hops

  1    <1 ms    <1 ms    <1 ms  TP-Link [192.168.1.1] 
  2    11 ms     9 ms     9 ms  10.94.0.1 
  3    12 ms     9 ms    10 ms  10.171.0.1 
  4    10 ms    12 ms    11 ms  10.170.0.5 
  5     *        *        *     Request timed out.
  6    32 ms    33 ms    36 ms  216.241.0.23 
  7     *        *        *     Request timed out.
  8     *        *        *     Request timed out.
  9     *        *        *     Request timed out.
 10     *        *        *     Request timed out.

Trace complete.

